[
  {
    "id": "home",
    "name": "Home",
    "pose": {
      "position": {
        "x": 1.061,
        "y": 25.691,
        "z": 0.000
      },
      "orientation": {
        "x": 0.000,
        "y": 0.000,
        "z": -0.482,
        "w": 0.876
      }
    }
  },
  {
    "id": "entry",
    "name": "Entry",
    "pose": {
      "position": {
        "x": 1.935,
        "y": 1.899,
        "z": 0.000
      },
      "orientation": {
        "x": 0.000,
        "y": 0.000,
        "z": 0.708,
        "w": 0.706
      }
    }
  },
  {
    "id": "Mobile Lab",
    "name": "Mobile Lab",
    "pose": {
       "position": {
        "x": -4.918,
        "y": -1.852,
        "z": 0.000
      },
      "orientation": {
        "x": 0.000,
        "y": 0.000,
        "z": 0.000,
        "w": 0.100
      }
    }
  },
  {
    "id": "Steve",
    "name": "Steve",
    "pose": {
       "position": {
        "x": -9.987,
        "y": -14.112,
        "z": 0.000
      },
      "orientation": {
        "x": 0.000,
        "y": 0.000,
        "z": 1.000,
        "w": 0.000
      }
    }
  },
  {
    "id": "lab",
    "name": "Manipulation Lab",
    "pose": {
      "position": {
        "x": -3.680,
        "y": 10.352,
        "z": 0.000
      },
      "orientation": {
        "x": 0.000,
        "y": 0.000,
        "z": 0.000,
        "w": 1.000
      }
    }
  },
  {
    "id": "Harvey",
    "name": "Harvey",
    "pose": {
      "position": {
        "x": -3.680,
        "y": 10.352,
        "z": 0.000
      },
      "orientation": {
        "x": 0.000,
        "y": 0.000,
        "z": 0.000,
        "w": 1.000
      }
    }
  },
  {
    "id": "meeting_room",
    "name": "Meeting Room",
    "pose": {
      "position": {
        "x": -7.527,
        "y": 26.178,
        "z": 0.000
      },
      "orientation": {
        "x": 0.000,
        "y": 0.000,
        "z": 0.708,
        "w": 0.706
      }
    }
  },
  {
    "id": "Peter",
    "name": "Peter",
    "pose": {
      "position": {
        "x": -15.457, 
        "y": -18.250,
        "z": 0.000
      },
      "orientation": {
        "x": 0.000,
        "y": 0.000,
        "z": 0.000,
        "w": 1.000
      }
    }
  },
  {
    "id": "Sue",
    "name": "Sue",
    "pose": {
      "position": {
        "x": -12.457, 
        "y": -18.250,
        "z": 0.000
      },
      "orientation": {
        "x": 0.000,
        "y": 0.000,
        "z": 0.000,
        "w": 1.000
      }
    }
  },
  {
    "id": "Sandy",
    "name": "Sandy",
    "pose": {
      "position": {
        "x": -10.608,
        "y": 10.627,
        "z": 0.000
      },
      "orientation": {
        "x": 0.000,
        "y": 0.000,
        "z": 1.000,
        "w": 0.000
      }
    }
  },
  {
    "id": "Jon",
    "name": "Jon",
    "pose": {
      "position": {
        "x": 2.200,
        "y": -11.092,
        "z": 0.000
      },
      "orientation": {
        "x": 0.000,
        "y": 0.000,
        "z": 0.708,
        "w": 0.706
      }
    }
  },
  {
    "id": "Belinda",
    "name": "Belinda",
    "pose": {
      "position": {
        "x": -0.210,
        "y": 24.221,
        "z": 0.000
      },
      "orientation": {
        "x": 0.000,
        "y": 0.000,
        "z": 1.000, 
        "w": 0.000
      }
    }
  },
  {
    "id": "cantina",
    "name": "Cantina",
    "pose": {
      "position": {
        "x": 8.827,
        "y": 11.452,
        "z": 0.000
      },
      "orientation": {
        "x": 0.000,
        "y": 0.000,
        "z": 1.000,
        "w": 0.000
      }
    }
  }
]

